dump.vcd
$date
	Wed Feb 18 08:41:34 2026
$end
$version
	Icarus Verilog
$end
$timescale
	1ps
$end
$scope module tb_lif_neuron $end
$var wire 8 ! v_mem [7:0] $end
$var wire 1 " spike_out $end
$var reg 1 # clk $end
$var reg 1 $ rst_n $end
$var reg 1 % spike_in $end
$var integer 32 & i [31:0] $end
$scope module uut $end
$var wire 1 # clk $end
$var wire 1 $ rst_n $end
$var wire 1 % spike_in $end
$var wire 8 ' v_mem [7:0] $end
$var wire 8 ( v_leak_clamped [7:0] $end
$var wire 8 ) v_integrated [7:0] $end
$var wire 9 * v_after_weight [8:0] $end
$var wire 9 + v_after_leak [8:0] $end
$var reg 1 " spike_out $end
$var reg 8 , v_mem_reg [7:0] $end
$upscope $end
$scope task set_spike $end
$var reg 1 - val $end
$upscope $end
$upscope $end
$enddefinitions $end
#0
$dumpvars
x-
b0 ,
b111111011 +
b0 *
b0 )
b0 (
b0 '
bx &
0%
0$
0#
0"
b0 !
$end
#5000
1#
#10000
0#
#15000
1#
#16000
1-
b0 &
1$
#20000
0#
#25000
1#
#26000
b1010 )
b1010 *
b1 &
1%
#30000
0#
#35000
b1111 )
b1111 *
b101 (
b101 +
b1010 !
b1010 '
b1010 ,
1#
#36000
b10 &
#40000
0#
#45000
b10100 )
b10100 *
b1010 (
b1010 +
b1111 !
b1111 '
b1111 ,
1#
#46000
b11 &
#50000
0#
#55000
b11001 )
b11001 *
b1111 (
b1111 +
b10100 !
b10100 '
b10100 ,
1#
#56000
b100 &
#60000
0#
#65000
b11110 )
b11110 *
b10100 (
b10100 +
b11001 !
b11001 '
b11001 ,
1#
#66000
b101 &
#70000
0#
#75000
b100011 )
b100011 *
b11001 (
b11001 +
b11110 !
b11110 '
b11110 ,
1#
#76000
b110 &
#80000
0#
#85000
b101000 )
b101000 *
b11110 (
b11110 +
b100011 !
b100011 '
b100011 ,
1#
#86000
b111 &
#90000
0#
#95000
b101101 )
b101101 *
b100011 (
b100011 +
b101000 !
b101000 '
b101000 ,
1#
#96000
b1000 &
#100000
0#
#105000
b110010 )
b110010 *
b101000 (
b101000 +
b101101 !
b101101 '
b101101 ,
1#
#106000
b1001 &
#110000
0#
#115000
b110111 )
b110111 *
b101101 (
b101101 +
b110010 !
b110010 '
b110010 ,
1#
#116000
b1010 &
#120000
0#
#125000
b111100 )
b111100 *
b110010 (
b110010 +
b110111 !
b110111 '
b110111 ,
1#
#126000
b1011 &
#130000
0#
#135000
b1000001 )
b1000001 *
b110111 (
b110111 +
b111100 !
b111100 '
b111100 ,
1#
#136000
b1100 &
#140000
0#
#145000
b1000110 )
b1000110 *
b111100 (
1"
b111100 +
b1000001 !
b1000001 '
b1000001 ,
1#
#146000
b1101 &
#150000
0#
#155000
b1010 )
b1010 *
b0 (
0"
b111111011 +
b0 !
b0 '
b0 ,
1#
#156000
b1110 &
#160000
0#
#165000
b1111 )
b1111 *
b101 (
b101 +
b1010 !
b1010 '
b1010 ,
1#
#166000
b1111 &
#170000
0#
#175000
b10100 )
b10100 *
b1010 (
b1010 +
b1111 !
b1111 '
b1111 ,
1#
#176000
b10000 &
#180000
0#
#185000
b11001 )
b11001 *
b1111 (
b1111 +
b10100 !
b10100 '
b10100 ,
1#
#186000
b10001 &
#190000
0#
#195000
b11110 )
b11110 *
b10100 (
b10100 +
b11001 !
b11001 '
b11001 ,
1#
#196000
b10010 &
#200000
0#
#205000
b100011 )
b100011 *
b11001 (
b11001 +
b11110 !
b11110 '
b11110 ,
1#
#206000
b10011 &
#210000
0#
#215000
b101000 )
b101000 *
b11110 (
b11110 +
b100011 !
b100011 '
b100011 ,
1#
#216000
b10100 &
#220000
0#
#225000
b101101 )
b101101 *
b100011 (
b100011 +
b101000 !
b101000 '
b101000 ,
1#
#226000
b10101 &
#230000
0#
#235000
b110010 )
b110010 *
b101000 (
b101000 +
b101101 !
b101101 '
b101101 ,
1#
#236000
b10110 &
#240000
0#
#245000
b110111 )
b110111 *
b101101 (
b101101 +
b110010 !
b110010 '
b110010 ,
1#
#246000
b10111 &
#250000
0#
#255000
b111100 )
b111100 *
b110010 (
b110010 +
b110111 !
b110111 '
b110111 ,
1#
#256000
b11000 &
#260000
0#
#265000
b1000001 )
b1000001 *
b110111 (
b110111 +
b111100 !
b111100 '
b111100 ,
1#
#266000
b11001 &
#270000
0#
#275000
b1000110 )
b1000110 *
b111100 (
1"
b111100 +
b1000001 !
b1000001 '
b1000001 ,
1#
#276000
b11010 &
#280000
0#
#285000
b1010 )
b1010 *
b0 (
0"
b111111011 +
b0 !
b0 '
b0 ,
1#
#286000
b11011 &
#290000
0#
#295000
b1111 )
b1111 *
b101 (
b101 +
b1010 !
b1010 '
b1010 ,
1#
#296000
b11100 &
#300000
0#
#305000
b10100 )
b10100 *
b1010 (
b1010 +
b1111 !
b1111 '
b1111 ,
1#
#306000
b11101 &
#310000
0#
#315000
b11001 )
b11001 *
b1111 (
b1111 +
b10100 !
b10100 '
b10100 ,
1#
#316000
0-
b0 &
#320000
0#
#325000
b11110 )
b11110 *
b10100 (
b10100 +
b11001 !
b11001 '
b11001 ,
1#
#326000
b10100 )
b10100 *
b1 &
0%
#330000
0#
#335000
b1111 )
b1111 *
b1111 (
b1111 +
b10100 !
b10100 '
b10100 ,
1#
#336000
b10 &
#340000
0#
#345000
b1010 )
b1010 *
b1010 (
b1010 +
b1111 !
b1111 '
b1111 ,
1#
#346000
b11 &
#350000
0#
#355000
b101 )
b101 *
b101 (
b101 +
b1010 !
b1010 '
b1010 ,
1#
#356000
b100 &
#360000
0#
#365000
b0 )
b0 *
b0 (
b0 +
b101 !
b101 '
b101 ,
1#
#366000
b101 &
#370000
0#
#375000
b111111011 +
b0 !
b0 '
b0 ,
1#
#376000
b110 &
#380000
0#
#385000
1#
#386000
b111 &
#390000
0#
#395000
1#
#396000
b1000 &
#400000
0#
#405000
1#
#406000
b1001 &
#410000
0#
#415000
1#
#416000
1-
b0 &
#420000
0#
#425000
1#
#426000
b1010 )
b1010 *
b1 &
1%
#430000
0#
#435000
b1111 )
b1111 *
b101 (
b101 +
b1010 !
b1010 '
b1010 ,
1#
#436000
b10 &
#440000
0#
#445000
b10100 )
b10100 *
b1010 (
b1010 +
b1111 !
b1111 '
b1111 ,
1#
#446000
b11 &
#450000
0#
#455000
b11001 )
b11001 *
b1111 (
b1111 +
b10100 !
b10100 '
b10100 ,
1#
#456000
b100 &
#460000
0#
#465000
b11110 )
b11110 *
b10100 (
b10100 +
b11001 !
b11001 '
b11001 ,
1#
#466000
b101 &
#470000
0#
#475000
b100011 )
b100011 *
b11001 (
b11001 +
b11110 !
b11110 '
b11110 ,
1#
#476000
b110 &
#480000
0#
#485000
b101000 )
b101000 *
b11110 (
b11110 +
b100011 !
b100011 '
b100011 ,
1#
#486000
b111 &
#490000
0#
#495000
b101101 )
b101101 *
b100011 (
b100011 +
b101000 !
b101000 '
b101000 ,
1#
#496000
b1000 &
#500000
0#
#505000
b110010 )
b110010 *
b101000 (
b101000 +
b101101 !
b101101 '
b101101 ,
1#
#506000
b1001 &
#510000
0#
#515000
b110111 )
b110111 *
b101101 (
b101101 +
b110010 !
b110010 '
b110010 ,
1#
#516000
b1010 &
#520000
0#
#525000
b111100 )
b111100 *
b110010 (
b110010 +
b110111 !
b110111 '
b110111 ,
1#
#526000
b1011 &
#530000
0#
#535000
b1000001 )
b1000001 *
b110111 (
b110111 +
b111100 !
b111100 '
b111100 ,
1#
#536000
b1100 &
#540000
0#
#545000
b1000110 )
b1000110 *
b111100 (
1"
b111100 +
b1000001 !
b1000001 '
b1000001 ,
1#
#546000
b1101 &
#550000
0#
#555000
b1010 )
b1010 *
b0 (
0"
b111111011 +
b0 !
b0 '
b0 ,
1#
#556000
b1110 &
#560000
0#
#565000
b1111 )
b1111 *
b101 (
b101 +
b1010 !
b1010 '
b1010 ,
1#
#566000
b1111 &
#570000
0#
#575000
b10100 )
b10100 *
b1010 (
b1010 +
b1111 !
b1111 '
b1111 ,
1#
#576000
b10000 &
#580000
0#
#585000
b11001 )
b11001 *
b1111 (
b1111 +
b10100 !
b10100 '
b10100 ,
1#
#586000
b10001 &
#590000
0#
#595000
b11110 )
b11110 *
b10100 (
b10100 +
b11001 !
b11001 '
b11001 ,
1#
#596000
b10010 &
#600000
0#
#605000
b100011 )
b100011 *
b11001 (
b11001 +
b11110 !
b11110 '
b11110 ,
1#
#606000
b10011 &
#610000
0#
#615000
b101000 )
b101000 *
b11110 (
b11110 +
b100011 !
b100011 '
b100011 ,
1#
#616000
0-
b0 &
#620000
0#
#625000
b101101 )
b101101 *
b100011 (
b100011 +
b101000 !
b101000 '
b101000 ,
1#
#626000
b100011 )
b100011 *
b1 &
0%
#630000
0#
#635000
b11110 )
b11110 *
b11110 (
b11110 +
b100011 !
b100011 '
b100011 ,
1#
#636000
b10 &
#640000
0#
#645000
b11001 )
b11001 *
b11001 (
b11001 +
b11110 !
b11110 '
b11110 ,
1#
#646000
b11 &
#650000
0#
#655000
b10100 )
b10100 *
b10100 (
b10100 +
b11001 !
b11001 '
b11001 ,
1#
#656000
b100 &
#660000
0#
#665000
b1111 )
b1111 *
b1111 (
b1111 +
b10100 !
b10100 '
b10100 ,
1#
#666000
b101 &
#670000
0#
#675000
b1010 )
b1010 *
b1010 (
b1010 +
b1111 !
b1111 '
b1111 ,
1#
#676000
b110 &
#680000
0#
#685000
b101 )
b101 *
b101 (
b101 +
b1010 !
b1010 '
b1010 ,
1#
#686000
b111 &
#690000
0#
#695000
b0 )
b0 *
b0 (
b0 +
b101 !
b101 '
b101 ,
1#
#696000
b1000 &
#700000
0#
#705000
b111111011 +
b0 !
b0 '
b0 ,
1#
#706000
b1001 &
#710000
0#
#715000
1#
#716000
b1010 &
#720000
0#
#725000
1#
#726000
b1011 &
#730000
0#
#735000
1#
#736000
b1100 &
#740000
0#
#745000
1#
#746000
b1101 &
#750000
0#
#755000
1#
#756000
b1110 &
#760000
0#
#765000
1#
#766000
b1111 &
#770000
0#
#775000
1#
#776000
b10000 &
#780000
0#
#785000
1#
#786000
b10001 &
#790000
0#
#795000
1#
#796000
b10010 &
#800000
0#
#805000
1#
#806000
b10011 &
#810000
0#
#815000
1#
#816000
1-
b0 &
#820000
0#
#825000
1#
#826000
b1010 )
b1010 *
b1 &
1%
#830000
0#
#835000
b1111 )
b1111 *
b101 (
b101 +
b1010 !
b1010 '
b1010 ,
1#
#836000
b10 &
#840000
0#
#845000
b10100 )
b10100 *
b1010 (
b1010 +
b1111 !
b1111 '
b1111 ,
1#
#846000
b11 &
#850000
0#
#855000
b11001 )
b11001 *
b1111 (
b1111 +
b10100 !
b10100 '
b10100 ,
1#
#856000
b100 &
#860000
0#
#865000
b11110 )
b11110 *
b10100 (
b10100 +
b11001 !
b11001 '
b11001 ,
1#
#866000
b101 &
#870000
0#
#875000
b100011 )
b100011 *
b11001 (
b11001 +
b11110 !
b11110 '
b11110 ,
1#
#876000
b1010 )
b1010 *
b0 (
b111111011 +
b0 !
b0 '
b0 ,
0$
#880000
0#
#885000
1#
#890000
0#
#895000
1#
#896000
0-
b0 &
1$
#900000
0#
#905000
b1111 )
b1111 *
b101 (
b101 +
b1010 !
b1010 '
b1010 ,
1#
#906000
b101 )
b101 *
b1 &
0%
#910000
0#
#915000
b0 )
b0 *
b0 (
b0 +
b101 !
b101 '
b101 ,
1#
#916000
b10 &
#920000
0#
#925000
b111111011 +
b0 !
b0 '
b0 ,
1#
#926000
b11 &
