hnsn_dump.vcd
$date
	Wed Feb 18 11:56:14 2026
$end
$version
	Icarus Verilog
$end
$timescale
	1ps
$end
$scope module tb_hnsn_top $end
$var wire 1 ! valid $end
$var wire 8 " v_out [7:0] $end
$var wire 8 # syn_w [7:0] $end
$var wire 4 $ rec_spk [3:0] $end
$var wire 1 % out_spk $end
$var wire 2 & da [1:0] $end
$var wire 8 ' char [7:0] $end
$var wire 1 ( changed $end
$var reg 1 ) clk $end
$var reg 4 * ext_in [3:0] $end
$var reg 1 + reward_in $end
$var reg 1 , rst_n $end
$var integer 32 - i [31:0] $end
$scope module uut $end
$var wire 1 ) clk $end
$var wire 4 . ext_spike_in [3:0] $end
$var wire 8 / rec_w02 [7:0] $end
$var wire 8 0 rec_w03 [7:0] $end
$var wire 8 1 rec_w12 [7:0] $end
$var wire 8 2 rec_w13 [7:0] $end
$var wire 8 3 rec_w20 [7:0] $end
$var wire 8 4 rec_w21 [7:0] $end
$var wire 8 5 rec_w30 [7:0] $end
$var wire 8 6 rec_w31 [7:0] $end
$var wire 1 + reward $end
$var wire 1 , rst_n $end
$var wire 8 7 v_out [7:0] $end
$var wire 8 8 syn_weight [7:0] $end
$var wire 8 9 syn_current [7:0] $end
$var wire 8 : rec_w32 [7:0] $end
$var wire 8 ; rec_w23 [7:0] $end
$var wire 8 < rec_w10 [7:0] $end
$var wire 8 = rec_w01 [7:0] $end
$var wire 8 > rec_v3 [7:0] $end
$var wire 8 ? rec_v2 [7:0] $end
$var wire 8 @ rec_v1 [7:0] $end
$var wire 8 A rec_v0 [7:0] $end
$var wire 4 B rec_spike [3:0] $end
$var wire 1 C predict $end
$var wire 1 % output_spike $end
$var wire 2 D dopamine [1:0] $end
$var wire 1 ! char_valid $end
$var wire 8 E char_out [7:0] $end
$var wire 1 ( char_changed $end
$scope module decoder $end
$var wire 1 ) clk $end
$var wire 1 , rst_n $end
$var wire 6 F sum_b [5:0] $end
$var wire 6 G sum_a [5:0] $end
$var wire 4 H spike_pattern [3:0] $end
$var wire 4 I pat_b [3:0] $end
$var wire 4 J pat_a [3:0] $end
$var wire 1 K fire3 $end
$var wire 1 L fire2 $end
$var wire 1 M fire1 $end
$var wire 1 N fire0 $end
$var wire 4 O decided_now [3:0] $end
$var reg 1 ( char_changed $end
$var reg 8 P char_out [7:0] $end
$var reg 1 ! char_valid $end
$var reg 5 Q cnt0 [4:0] $end
$var reg 5 R cnt1 [4:0] $end
$var reg 5 S cnt2 [4:0] $end
$var reg 5 T cnt3 [4:0] $end
$var reg 3 U confirm_cnt [2:0] $end
$var reg 4 V decided_latch [3:0] $end
$var reg 1 W do_compare $end
$var reg 8 X prev_char [7:0] $end
$var reg 5 Y win_cnt [4:0] $end
$var reg 4 Z win_pattern [3:0] $end
$scope function pattern_to_char $end
$var reg 4 [ pattern [3:0] $end
$upscope $end
$upscope $end
$scope module out_neuron $end
$var wire 1 ) clk $end
$var wire 1 , rst_n $end
$var wire 8 \ v_mem [7:0] $end
$var wire 8 ] v_leak_clamped [7:0] $end
$var wire 8 ^ v_integrated [7:0] $end
$var wire 9 _ v_after_leak [8:0] $end
$var wire 9 ` v_after_current [8:0] $end
$var wire 8 a input_current [7:0] $end
$var reg 1 % spike_out $end
$var reg 8 b v_mem_reg [7:0] $end
$upscope $end
$scope module out_syn $end
$var wire 1 ) clk $end
$var wire 1 % post_spike $end
$var wire 1 c pre_spike $end
$var wire 1 , rst_n $end
$var wire 8 d weight [7:0] $end
$var wire 8 e weighted_current [7:0] $end
$var wire 9 f weight_ltp [8:0] $end
$var wire 9 g weight_ltd [8:0] $end
$var wire 8 h weight_after_ltp [7:0] $end
$var wire 8 i weight_after_ltd [7:0] $end
$var wire 2 j dopamine_level [1:0] $end
$var reg 8 k ltd_effective [7:0] $end
$var reg 8 l ltp_effective [7:0] $end
$var reg 4 m post_trace [3:0] $end
$var reg 4 n pre_trace [3:0] $end
$var reg 8 o weight_reg [7:0] $end
$upscope $end
$scope module rec_layer $end
$var wire 1 ) clk $end
$var wire 4 p ext_spike_in [3:0] $end
$var wire 1 , rst_n $end
$var wire 8 q w02 [7:0] $end
$var wire 8 r w03 [7:0] $end
$var wire 8 s w12 [7:0] $end
$var wire 8 t w13 [7:0] $end
$var wire 8 u w20 [7:0] $end
$var wire 8 v w21 [7:0] $end
$var wire 8 w w30 [7:0] $end
$var wire 8 x w31 [7:0] $end
$var wire 8 y w32 [7:0] $end
$var wire 8 z w23 [7:0] $end
$var wire 8 { w10 [7:0] $end
$var wire 8 | w01 [7:0] $end
$var wire 8 } v_mem_3 [7:0] $end
$var wire 8 ~ v_mem_2 [7:0] $end
$var wire 8 !" v_mem_1 [7:0] $end
$var wire 8 "" v_mem_0 [7:0] $end
$var wire 9 #" sum3 [8:0] $end
$var wire 9 $" sum2 [8:0] $end
$var wire 9 %" sum1 [8:0] $end
$var wire 9 &" sum0 [8:0] $end
$var wire 4 '" spike_out [3:0] $end
$var wire 8 (" ext3 [7:0] $end
$var wire 8 )" ext2 [7:0] $end
$var wire 8 *" ext1 [7:0] $end
$var wire 8 +" ext0 [7:0] $end
$var wire 8 ," cur3 [7:0] $end
$var wire 8 -" cur2 [7:0] $end
$var wire 8 ." cur1 [7:0] $end
$var wire 8 /" cur0 [7:0] $end
$var wire 8 0" c32 [7:0] $end
$var wire 8 1" c23 [7:0] $end
$var wire 8 2" c10 [7:0] $end
$var wire 8 3" c01 [7:0] $end
$scope module n0 $end
$var wire 1 ) clk $end
$var wire 8 4" input_current [7:0] $end
$var wire 1 , rst_n $end
$var wire 8 5" v_mem [7:0] $end
$var wire 8 6" v_leak_clamped [7:0] $end
$var wire 8 7" v_integrated [7:0] $end
$var wire 9 8" v_after_leak [8:0] $end
$var wire 9 9" v_after_current [8:0] $end
$var reg 1 :" spike_out $end
$var reg 8 ;" v_mem_reg [7:0] $end
$upscope $end
$scope module n1 $end
$var wire 1 ) clk $end
$var wire 8 <" input_current [7:0] $end
$var wire 1 , rst_n $end
$var wire 8 =" v_mem [7:0] $end
$var wire 8 >" v_leak_clamped [7:0] $end
$var wire 8 ?" v_integrated [7:0] $end
$var wire 9 @" v_after_leak [8:0] $end
$var wire 9 A" v_after_current [8:0] $end
$var reg 1 B" spike_out $end
$var reg 8 C" v_mem_reg [7:0] $end
$upscope $end
$scope module n2 $end
$var wire 1 ) clk $end
$var wire 8 D" input_current [7:0] $end
$var wire 1 , rst_n $end
$var wire 8 E" v_mem [7:0] $end
$var wire 8 F" v_leak_clamped [7:0] $end
$var wire 8 G" v_integrated [7:0] $end
$var wire 9 H" v_after_leak [8:0] $end
$var wire 9 I" v_after_current [8:0] $end
$var reg 1 J" spike_out $end
$var reg 8 K" v_mem_reg [7:0] $end
$upscope $end
$scope module n3 $end
$var wire 1 ) clk $end
$var wire 8 L" input_current [7:0] $end
$var wire 1 , rst_n $end
$var wire 8 M" v_mem [7:0] $end
$var wire 8 N" v_leak_clamped [7:0] $end
$var wire 8 O" v_integrated [7:0] $end
$var wire 9 P" v_after_leak [8:0] $end
$var wire 9 Q" v_after_current [8:0] $end
$var reg 1 R" spike_out $end
$var reg 8 S" v_mem_reg [7:0] $end
$upscope $end
$scope module s01 $end
$var wire 1 ) clk $end
$var wire 1 T" post_spike $end
$var wire 1 U" pre_spike $end
$var wire 1 , rst_n $end
$var wire 8 V" weight [7:0] $end
$var wire 8 W" weighted_current [7:0] $end
$var wire 9 X" weight_ltp [8:0] $end
$var wire 9 Y" weight_ltd [8:0] $end
$var wire 8 Z" weight_after_ltp [7:0] $end
$var wire 8 [" weight_after_ltd [7:0] $end
$var reg 4 \" post_trace [3:0] $end
$var reg 4 ]" pre_trace [3:0] $end
$var reg 8 ^" weight_reg [7:0] $end
$upscope $end
$scope module s10 $end
$var wire 1 ) clk $end
$var wire 1 _" post_spike $end
$var wire 1 `" pre_spike $end
$var wire 1 , rst_n $end
$var wire 8 a" weight [7:0] $end
$var wire 8 b" weighted_current [7:0] $end
$var wire 9 c" weight_ltp [8:0] $end
$var wire 9 d" weight_ltd [8:0] $end
$var wire 8 e" weight_after_ltp [7:0] $end
$var wire 8 f" weight_after_ltd [7:0] $end
$var reg 4 g" post_trace [3:0] $end
$var reg 4 h" pre_trace [3:0] $end
$var reg 8 i" weight_reg [7:0] $end
$upscope $end
$scope module s23 $end
$var wire 1 ) clk $end
$var wire 1 j" post_spike $end
$var wire 1 k" pre_spike $end
$var wire 1 , rst_n $end
$var wire 8 l" weight [7:0] $end
$var wire 8 m" weighted_current [7:0] $end
$var wire 9 n" weight_ltp [8:0] $end
$var wire 9 o" weight_ltd [8:0] $end
$var wire 8 p" weight_after_ltp [7:0] $end
$var wire 8 q" weight_after_ltd [7:0] $end
$var reg 4 r" post_trace [3:0] $end
$var reg 4 s" pre_trace [3:0] $end
$var reg 8 t" weight_reg [7:0] $end
$upscope $end
$scope module s32 $end
$var wire 1 ) clk $end
$var wire 1 u" post_spike $end
$var wire 1 v" pre_spike $end
$var wire 1 , rst_n $end
$var wire 8 w" weight [7:0] $end
$var wire 8 x" weighted_current [7:0] $end
$var wire 9 y" weight_ltp [8:0] $end
$var wire 9 z" weight_ltd [8:0] $end
$var wire 8 {" weight_after_ltp [7:0] $end
$var wire 8 |" weight_after_ltd [7:0] $end
$var reg 4 }" post_trace [3:0] $end
$var reg 4 ~" pre_trace [3:0] $end
$var reg 8 !# weight_reg [7:0] $end
$upscope $end
$upscope $end
$scope module rew_circ $end
$var wire 1 ) clk $end
$var wire 1 C prediction $end
$var wire 1 + reward $end
$var wire 1 , rst_n $end
$var reg 4 "# decay_counter [3:0] $end
$var reg 2 ## dopamine_level [1:0] $end
$var reg 1 $# predict_state $end
$var reg 4 %# reward_count [3:0] $end
$upscope $end
$upscope $end
$scope task rest $end
$var integer 32 &# j [31:0] $end
$var integer 32 '# n [31:0] $end
$upscope $end
$scope task tick $end
$var reg 4 (# pattern [3:0] $end
$var reg 1 )# rew $end
$upscope $end
$upscope $end
$enddefinitions $end
#0
$dumpvars
x)#
bx (#
bx '#
bx &#
b0 %#
0$#
b1 ##
b0 "#
b101 !#
b0 ~"
b0 }"
b100 |"
b1000 {"
b100 z"
b1000 y"
b0 x"
b101 w"
0v"
0u"
b101 t"
b0 s"
b0 r"
b100 q"
b1000 p"
b100 o"
b1000 n"
b0 m"
b101 l"
0k"
0j"
b101 i"
b0 h"
b0 g"
b100 f"
b1000 e"
b100 d"
b1000 c"
b0 b"
b101 a"
0`"
0_"
b101 ^"
b0 ]"
b0 \"
b100 ["
b1000 Z"
b100 Y"
b1000 X"
b0 W"
b101 V"
0U"
0T"
b0 S"
0R"
b0 Q"
b111110001 P"
b0 O"
b0 N"
b0 M"
b0 L"
b0 K"
0J"
b0 I"
b111110001 H"
b0 G"
b0 F"
b0 E"
b0 D"
b0 C"
0B"
b0 A"
b111110001 @"
b0 ?"
b0 >"
b0 ="
b0 <"
b0 ;"
0:"
b0 9"
b111110001 8"
b0 7"
b0 6"
b0 5"
b0 4"
b0 3"
b0 2"
b0 1"
b0 0"
b0 /"
b0 ."
b0 -"
b0 ,"
b0 +"
b0 *"
b0 )"
b0 ("
b0 '"
b0 &"
b0 %"
b0 $"
b0 #"
b0 ""
b0 !"
b0 ~
b0 }
b101 |
b101 {
b101 z
b101 y
b0 x
b0 w
b0 v
b0 u
b0 t
b0 s
b0 r
b0 q
b0 p
b10100 o
b0 n
b0 m
b11 l
b1 k
b1 j
b10011 i
b10111 h
b10011 g
b10111 f
b0 e
b10100 d
0c
b0 b
b0 a
b0 `
b111111011 _
b0 ^
b0 ]
b0 \
bx [
b0 Z
b0 Y
b100000 X
0W
b0 V
b0 U
b0 T
b0 S
b0 R
b0 Q
b100000 P
b0 O
0N
0M
0L
0K
b0 J
b0 I
b0 H
b0 G
b0 F
b100000 E
b1 D
0C
b0 B
b0 A
b0 @
b0 ?
b0 >
b101 =
b101 <
b101 ;
b101 :
b0 9
b10100 8
b0 7
b0 6
b0 5
b0 4
b0 3
b0 2
b0 1
b0 0
b0 /
b0 .
bx -
0,
0+
b0 *
0)
0(
b100000 '
b1 &
0%
b0 $
b10100 #
b0 "
0!
$end
#5000
1)
#10000
0)
#15000
1)
#20000
0)
#25000
1)
#26000
1)#
b11 (#
b0 -
1,
#30000
0)
#35000
b1 "#
b1 Y
1)
#36000
b111100 7"
b111100 ?"
b111100 9"
b111100 /"
b111100 4"
b111100 A"
b111100 ."
b111100 <"
b111100 &"
b111100 +"
b111100 %"
b111100 *"
b1 -
1+
b11 *
b11 .
b11 p
#40000
0)
#45000
b1000001 /"
b1000001 4"
b1101110 ?"
b1000001 ."
b1000001 <"
b10100 ^
b1101110 7"
b10100 i
b11101 h
b1000001 &"
b101 2"
b101 b"
b1101110 A"
b101101 >"
b1000001 %"
b101 3"
b101 W"
b10100 `
b10100 9
b10100 a
b10100 e
b1101110 9"
b101101 6"
b10100 g
b0 k
b11101 f
b1001 l
1T"
1`"
1U"
1_"
1c
b10 Y
b11 &
b11 D
b11 j
b11 ##
b1 %#
b0 "#
1B"
b101101 @"
b111100 @
b111100 !"
b111100 ="
b111100 C"
b11 $
b11 B
b11 H
b11 '"
1:"
b101101 8"
b111100 A
b111100 ""
b111100 5"
b111100 ;"
1)
#46000
b10 -
#50000
0)
#55000
b111100 ."
b111100 <"
b111100 7"
b111100 /"
b111100 4"
b111100 ?"
b1111 ^
b111100 %"
b0 3"
b0 W"
b0 9
b0 a
b0 e
b111100 9"
b0 6"
b111100 &"
b0 2"
b0 b"
b111100 A"
b0 >"
b1111 `
b1111 ]
0U"
0_"
0c
0T"
0`"
0:"
b111110001 8"
b0 A
b0 ""
b0 5"
b0 ;"
b0 $
b0 B
b0 H
b0 '"
0B"
b111110001 @"
b0 @
b0 !"
b0 ="
b0 C"
b1010 \"
b1010 ]"
b1010 g"
b1010 h"
b10 %#
b1000 n
b1111 _
b10100 "
b10100 7
b10100 \
b10100 b
b11 Y
b1 R
b10 G
b1 Q
1)
#56000
b11 -
#60000
0)
#65000
b1000001 /"
b1000001 4"
b1101110 ?"
b1000001 ."
b1000001 <"
b11110 ^
b1101110 7"
b1010 ]
b1000001 &"
b101 2"
b101 b"
b1101110 A"
b101101 >"
b1000001 %"
b101 3"
b101 W"
b11110 `
b10100 9
b10100 a
b10100 e
b1101110 9"
b101101 6"
1T"
1`"
1U"
1_"
1c
b100 Y
b1010 _
b1111 "
b1111 7
b1111 \
b1111 b
b111 n
b11 %#
b1001 g"
b1001 h"
b1001 \"
b1001 ]"
1B"
b101101 @"
b111100 @
b111100 !"
b111100 ="
b111100 C"
b11 $
b11 B
b11 H
b11 '"
1:"
b101101 8"
b111100 A
b111100 ""
b111100 5"
b111100 ;"
1)
#66000
b100 -
#70000
0)
#75000
b111100 7"
b111100 ?"
b11001 ^
b111 ["
b111100 ."
b111100 <"
b111 f"
b111100 /"
b111100 4"
b0 9
b0 a
b0 e
b111100 9"
b0 6"
b111100 A"
b0 >"
b1011 Z"
b1011 e"
b11001 `
b11001 ]
0U"
0_"
0c
0T"
0`"
b111100 %"
b0 3"
b0 W"
b111100 &"
b0 2"
b0 b"
b11 O
0:"
b111110001 8"
b0 A
b0 ""
b0 5"
b0 ;"
b0 $
b0 B
b0 H
b0 '"
0B"
b111110001 @"
b0 @
b0 !"
b0 ="
b0 C"
b1011 X"
b111 Y"
b1000 =
b1000 |
b1000 V"
b1000 ^"
b1010 \"
b1010 ]"
b1011 c"
b111 d"
b1000 <
b1000 {
b1000 a"
b1000 i"
b1010 g"
b1010 h"
b100 %#
b1000 n
b11001 _
b11110 "
b11110 7
b11110 \
b11110 b
b101 Y
1M
b10 R
b100 G
b11 J
1N
b10 Q
1)
#76000
b101 -
#80000
0)
#85000
b1000100 /"
b1000100 4"
b1110001 ?"
b1000100 ."
b1000100 <"
b101000 ^
b1110001 7"
b10100 ]
b1000100 &"
b1000 2"
b1000 b"
b1110001 A"
b101101 >"
b1000100 %"
b1000 3"
b1000 W"
b101000 `
b10100 9
b10100 a
b10100 e
b1110001 9"
b101101 6"
1T"
1`"
1U"
1_"
1c
b110 Y
b10100 _
b11001 "
b11001 7
b11001 \
b11001 b
b111 n
b101 %#
b1001 g"
b1001 h"
b1001 \"
b1001 ]"
1B"
b101101 @"
b111100 @
b111100 !"
b111100 ="
b111100 C"
b11 $
b11 B
b11 H
b11 '"
1:"
b101101 8"
b111100 A
b111100 ""
b111100 5"
b111100 ;"
1)
#86000
b110 -
#90000
0)
#95000
b111100 7"
b111100 ?"
b100011 ^
b1010 ["
b111100 ."
b111100 <"
b1010 f"
b111100 /"
b111100 4"
b0 9
b0 a
b0 e
b111100 9"
b0 6"
b111100 A"
b0 >"
b1110 Z"
b1110 e"
b100011 `
b100011 ]
0U"
0_"
0c
0T"
0`"
b111100 %"
b0 3"
b0 W"
b111100 &"
b0 2"
b0 b"
0:"
b111110001 8"
b0 A
b0 ""
b0 5"
b0 ;"
b0 $
b0 B
b0 H
b0 '"
0B"
b111110001 @"
b0 @
b0 !"
b0 ="
b0 C"
b1110 X"
b1010 Y"
b1011 =
b1011 |
b1011 V"
b1011 ^"
b1010 \"
b1010 ]"
b1110 c"
b1010 d"
b1011 <
b1011 {
b1011 a"
b1011 i"
b1010 g"
b1010 h"
1C
1$#
b1000 n
b100011 _
b101000 "
b101000 7
b101000 \
b101000 b
b111 Y
b11 R
b110 G
b11 Q
1)
#96000
b111 -
#100000
0)
#105000
b1000111 /"
b1000111 4"
b1110100 ?"
b1000111 ."
b1000111 <"
b110010 ^
b1110100 7"
b10011 i
b10111 h
b11110 ]
b1000111 &"
b1011 2"
b1011 b"
b1110100 A"
b101101 >"
b1000111 %"
b1011 3"
b1011 W"
b110010 `
b10100 9
b10100 a
b10100 e
b1110100 9"
b101101 6"
b10011 g
b1 k
b10111 f
b11 l
1T"
1`"
1U"
1_"
1c
b1000 Y
b11110 _
b100011 "
b100011 7
b100011 \
b100011 b
b111 n
b1 &
b1 D
b1 j
b1 ##
b1001 g"
b1001 h"
b1001 \"
b1001 ]"
1B"
b101101 @"
b111100 @
b111100 !"
b111100 ="
b111100 C"
b11 $
b11 B
b11 H
b11 '"
1:"
b101101 8"
b111100 A
b111100 ""
b111100 5"
b111100 ;"
1)
#106000
b1000 -
#110000
0)
#115000
b111100 7"
b111100 ?"
b101101 ^
b1101 ["
b111100 ."
b111100 <"
b1101 f"
b111100 /"
b111100 4"
b0 9
b0 a
b0 e
b111100 9"
b0 6"
b111100 A"
b0 >"
b10001 Z"
b10001 e"
b101101 `
b101101 ]
0U"
0_"
0c
0T"
0`"
b111100 %"
b0 3"
b0 W"
b111100 &"
b0 2"
b0 b"
0:"
b111110001 8"
b0 A
b0 ""
b0 5"
b0 ;"
b0 $
b0 B
b0 H
b0 '"
0B"
b111110001 @"
b0 @
b0 !"
b0 ="
b0 C"
b10001 X"
b1101 Y"
b1110 =
b1110 |
b1110 V"
b1110 ^"
b1010 \"
b1010 ]"
b10001 c"
b1101 d"
b1110 <
b1110 {
b1110 a"
b1110 i"
b1010 g"
b1010 h"
b1000 n
b101101 _
b110010 "
b110010 7
b110010 \
b110010 b
b1001 Y
b100 R
b1000 G
b100 Q
1)
#116000
b1001 -
#120000
0)
#125000
b1001010 /"
b1001010 4"
b1110111 ?"
b1001010 ."
b1001010 <"
b111100 ^
b1110111 7"
b101000 ]
b1001010 &"
b1110 2"
b1110 b"
b1110111 A"
b101101 >"
b1001010 %"
b1110 3"
b1110 W"
b111100 `
b10100 9
b10100 a
b10100 e
b1110111 9"
b101101 6"
1T"
1`"
1U"
1_"
1c
b1010 Y
b101000 _
b101101 "
b101101 7
b101101 \
b101101 b
b111 n
b1001 g"
b1001 h"
b1001 \"
b1001 ]"
1B"
b101101 @"
b111100 @
b111100 !"
b111100 ="
b111100 C"
b11 $
b11 B
b11 H
b11 '"
1:"
b101101 8"
b111100 A
b111100 ""
b111100 5"
b111100 ;"
1)
#126000
b1010 -
#130000
0)
#135000
b111100 7"
b111100 ?"
b110111 ^
b10000 ["
b111100 ."
b111100 <"
b10000 f"
b111100 /"
b111100 4"
b0 9
b0 a
b0 e
b111100 9"
b0 6"
b111100 A"
b0 >"
b10100 Z"
b10100 e"
b110111 `
b110111 ]
0U"
0_"
0c
0T"
0`"
b111100 %"
b0 3"
b0 W"
b111100 &"
b0 2"
b0 b"
0:"
b111110001 8"
b0 A
b0 ""
b0 5"
b0 ;"
b0 $
b0 B
b0 H
b0 '"
0B"
b111110001 @"
b0 @
b0 !"
b0 ="
b0 C"
b10100 X"
b10000 Y"
b10001 =
b10001 |
b10001 V"
b10001 ^"
b1010 \"
b1010 ]"
b10100 c"
b10000 d"
b10001 <
b10001 {
b10001 a"
b10001 i"
b1010 g"
b1010 h"
b1000 n
b110111 _
b111100 "
b111100 7
b111100 \
b111100 b
b1011 Y
b101 R
b1010 G
b101 Q
1)
#136000
b1011 -
#140000
0)
#145000
b1001101 /"
b1001101 4"
b1111010 ?"
b1001101 ."
b1001101 <"
b1000110 ^
b1111010 7"
b110010 ]
b1001101 &"
b10001 2"
b10001 b"
b1111010 A"
b101101 >"
b1001101 %"
b10001 3"
b10001 W"
b1000110 `
b10100 9
b10100 a
b10100 e
b1111010 9"
b101101 6"
1T"
1`"
1U"
1_"
1c
b1100 Y
b110010 _
b110111 "
b110111 7
b110111 \
b110111 b
b111 n
b1001 g"
b1001 h"
b1001 \"
b1001 ]"
1B"
b101101 @"
b111100 @
b111100 !"
b111100 ="
b111100 C"
b11 $
b11 B
b11 H
b11 '"
1:"
b101101 8"
b111100 A
b111100 ""
b111100 5"
b111100 ;"
1)
#146000
b1100 -
#150000
0)
#155000
b111100 7"
b111100 ?"
b1000001 ^
b10011 ["
b111100 ."
b111100 <"
b10011 f"
b111100 /"
b111100 4"
b0 9
b0 a
b0 e
b111100 9"
b0 6"
b111100 A"
b0 >"
b10111 Z"
b10111 e"
b1000001 `
b1000001 ]
0U"
0_"
0c
0T"
0`"
b111100 %"
b0 3"
b0 W"
b111100 &"
b0 2"
b0 b"
0:"
b111110001 8"
b0 A
b0 ""
b0 5"
b0 ;"
b0 $
b0 B
b0 H
b0 '"
0B"
b111110001 @"
b0 @
b0 !"
b0 ="
b0 C"
b10111 X"
b10011 Y"
b10100 =
b10100 |
b10100 V"
b10100 ^"
b1010 \"
b1010 ]"
b10111 c"
b10011 d"
b10100 <
b10100 {
b10100 a"
b10100 i"
b1010 g"
b1010 h"
b1000 n
1%
b1000001 _
b1000110 "
b1000110 7
b1000110 \
b1000110 b
b1101 Y
b110 R
b1100 G
b110 Q
1)
#156000
b1101 -
#160000
0)
#165000
b1010000 /"
b1010000 4"
b1111101 ?"
b1010000 ."
b1010000 <"
b10111 ^
b1111101 7"
b0 ]
b11010 h
b10110 i
b1010000 &"
b10100 2"
b10100 b"
b1111101 A"
b101101 >"
b1010000 %"
b10100 3"
b10100 W"
b10111 `
b10111 9
b10111 a
b10111 e
b1111101 9"
b101101 6"
1T"
1`"
1U"
1_"
1c
b1110 Y
0%
b111111011 _
b0 "
b0 7
b0 \
b0 b
b11010 f
b10110 g
b10111 #
b10111 8
b10111 d
b10111 o
b1000 m
b111 n
b1001 g"
b1001 h"
b1001 \"
b1001 ]"
1B"
b101101 @"
b111100 @
b111100 !"
b111100 ="
b111100 C"
b11 $
b11 B
b11 H
b11 '"
1:"
b101101 8"
b111100 A
b111100 ""
b111100 5"
b111100 ;"
1)
#166000
b1110 -
#170000
0)
#175000
b111100 7"
b111100 ?"
b10110 ["
b111100 ."
b111100 <"
b10110 f"
b111100 /"
b111100 4"
b10010 ^
b111100 9"
b0 6"
b111100 A"
b0 >"
b11010 Z"
b11010 e"
b11001 h
b10101 i
b10010 ]
0U"
0_"
0c
0T"
0`"
b111100 %"
b0 3"
b0 W"
b111100 &"
b0 2"
b0 b"
b10010 `
b0 9
b0 a
b0 e
0:"
b111110001 8"
b0 A
b0 ""
b0 5"
b0 ;"
b0 $
b0 B
b0 H
b0 '"
0B"
b111110001 @"
b0 @
b0 !"
b0 ="
b0 C"
b11010 X"
b10110 Y"
b10111 =
b10111 |
b10111 V"
b10111 ^"
b1010 \"
b1010 ]"
b11010 c"
b10110 d"
b10111 <
b10111 {
b10111 a"
b10111 i"
b1010 g"
b1010 h"
b11001 f
b10101 g
b10110 #
b10110 8
b10110 d
b10110 o
b111 m
b1000 n
b10010 _
b10111 "
b10111 7
b10111 \
b10111 b
b1111 Y
b111 R
b1110 G
b111 Q
1)
#176000
b1111 -
#180000
0)
#185000
b1010011 /"
b1010011 4"
b10000000 ?"
b1010011 ."
b1010011 <"
b100011 ^
b10000000 7"
b1101 ]
b1010011 &"
b10111 2"
b10111 b"
b10000000 A"
b101101 >"
b1010011 %"
b10111 3"
b10111 W"
b100011 `
b10110 9
b10110 a
b10110 e
b10000000 9"
b101101 6"
b0 O
1T"
1`"
1U"
1_"
1c
1W
0M
b0 R
b0 G
b0 J
0N
b0 Q
b11 V
b0 Y
b1101 _
b10010 "
b10010 7
b10010 \
b10010 b
b110 m
b111 n
b1001 g"
b1001 h"
b1001 \"
b1001 ]"
1B"
b101101 @"
b111100 @
b111100 !"
b111100 ="
b111100 C"
b11 $
b11 B
b11 H
b11 '"
1:"
b101101 8"
b111100 A
b111100 ""
b111100 5"
b111100 ;"
1)
#186000
b10000 -
#190000
0)
#195000
b111100 7"
b111100 ?"
b11001 ["
b111100 ."
b111100 <"
b11001 f"
b111100 /"
b111100 4"
b11110 ^
b111100 9"
b0 6"
b111100 A"
b0 >"
b11101 Z"
b11101 e"
b11000 h
b10100 i
b11110 ]
0U"
0_"
0c
0T"
0`"
b111100 %"
b0 3"
b0 W"
b111100 &"
b0 2"
b0 b"
b11110 `
b0 9
b0 a
b0 e
0:"
b111110001 8"
b0 A
b0 ""
b0 5"
b0 ;"
b0 $
b0 B
b0 H
b0 '"
0B"
b111110001 @"
b0 @
b0 !"
b0 ="
b0 C"
b11101 X"
b11001 Y"
b11010 =
b11010 |
b11010 V"
b11010 ^"
b1010 \"
b1010 ]"
b11101 c"
b11001 d"
b11010 <
b11010 {
b11010 a"
b11010 i"
b1010 g"
b1010 h"
b11000 f
b10100 g
b10101 #
b10101 8
b10101 d
b10101 o
b101 m
b1000 n
b11110 _
b100011 "
b100011 7
b100011 \
b100011 b
b11 Z
0W
1)
#196000
b10001 -
#200000
0)
#205000
b1010110 /"
b1010110 4"
b10000011 ?"
b1010110 ."
b1010110 <"
b101110 ^
b10000011 7"
b11001 ]
b1010110 &"
b11010 2"
b11010 b"
b10000011 A"
b101101 >"
b1010110 %"
b11010 3"
b11010 W"
b101110 `
b10101 9
b10101 a
b10101 e
b10000011 9"
b101101 6"
1T"
1`"
1U"
1_"
1c
b1 Y
b11001 _
b11110 "
b11110 7
b11110 \
b11110 b
b100 m
b111 n
b1001 g"
b1001 h"
b1001 \"
b1001 ]"
1B"
b101101 @"
b111100 @
b111100 !"
b111100 ="
b111100 C"
b11 $
b11 B
b11 H
b11 '"
1:"
b101101 8"
b111100 A
b111100 ""
b111100 5"
b111100 ;"
1)
#206000
b10010 -
#210000
0)
#215000
b111100 7"
b111100 ?"
b11100 ["
b111100 ."
b111100 <"
b11100 f"
b111100 /"
b111100 4"
b101001 ^
b111100 9"
b0 6"
b111100 A"
b0 >"
b100000 Z"
b100000 e"
b10111 h
b10011 i
b101001 ]
0U"
0_"
0c
0T"
0`"
b111100 %"
b0 3"
b0 W"
b111100 &"
b0 2"
b0 b"
b101001 `
b0 9
b0 a
b0 e
0:"
b111110001 8"
b0 A
b0 ""
b0 5"
b0 ;"
b0 $
b0 B
b0 H
b0 '"
0B"
b111110001 @"
b0 @
b0 !"
b0 ="
b0 C"
b100000 X"
b11100 Y"
b11101 =
b11101 |
b11101 V"
b11101 ^"
b1010 \"
b1010 ]"
b100000 c"
b11100 d"
b11101 <
b11101 {
b11101 a"
b11101 i"
b1010 g"
b1010 h"
b10111 f
b10011 g
b10100 #
b10100 8
b10100 d
b10100 o
b11 m
b1000 n
b101001 _
b101110 "
b101110 7
b101110 \
b101110 b
b10 Y
b1 R
b10 G
b1 Q
1)
#216000
b10011 -
#220000
0)
#225000
b1011001 /"
b1011001 4"
b10000110 ?"
b1011001 ."
b1011001 <"
b111000 ^
b10000110 7"
b100100 ]
b1011001 &"
b11101 2"
b11101 b"
b10000110 A"
b101101 >"
b1011001 %"
b11101 3"
b11101 W"
b111000 `
b10100 9
b10100 a
b10100 e
b10000110 9"
b101101 6"
1T"
1`"
1U"
1_"
1c
b11 Y
b100100 _
b101001 "
b101001 7
b101001 \
b101001 b
b10 m
b111 n
b1001 g"
b1001 h"
b1001 \"
b1001 ]"
1B"
b101101 @"
b111100 @
b111100 !"
b111100 ="
b111100 C"
b11 $
b11 B
b11 H
b11 '"
1:"
b101101 8"
b111100 A
b111100 ""
b111100 5"
b111100 ;"
1)
#226000
b10100 -
#230000
0)
