recurrent_dump.vcd
$date
	Wed Feb 18 11:01:22 2026
$end
$version
	Icarus Verilog
$end
$timescale
	1ps
$end
$scope module tb_recurrent_layer $end
$var wire 8 ! w32 [7:0] $end
$var wire 8 " w31 [7:0] $end
$var wire 8 # w30 [7:0] $end
$var wire 8 $ w23 [7:0] $end
$var wire 8 % w21 [7:0] $end
$var wire 8 & w20 [7:0] $end
$var wire 8 ' w13 [7:0] $end
$var wire 8 ( w12 [7:0] $end
$var wire 8 ) w10 [7:0] $end
$var wire 8 * w03 [7:0] $end
$var wire 8 + w02 [7:0] $end
$var wire 8 , w01 [7:0] $end
$var wire 8 - v3 [7:0] $end
$var wire 8 . v2 [7:0] $end
$var wire 8 / v1 [7:0] $end
$var wire 8 0 v0 [7:0] $end
$var wire 4 1 spk [3:0] $end
$var reg 1 2 clk $end
$var reg 4 3 ext_in [3:0] $end
$var reg 1 4 rst_n $end
$var integer 32 5 i [31:0] $end
$scope module uut $end
$var wire 1 2 clk $end
$var wire 4 6 ext_spike_in [3:0] $end
$var wire 1 4 rst_n $end
$var wire 8 7 w32 [7:0] $end
$var wire 8 8 w31 [7:0] $end
$var wire 8 9 w30 [7:0] $end
$var wire 8 : w23 [7:0] $end
$var wire 8 ; w21 [7:0] $end
$var wire 8 < w20 [7:0] $end
$var wire 8 = w13 [7:0] $end
$var wire 8 > w12 [7:0] $end
$var wire 8 ? w10 [7:0] $end
$var wire 8 @ w03 [7:0] $end
$var wire 8 A w02 [7:0] $end
$var wire 8 B w01 [7:0] $end
$var wire 8 C v_mem_3 [7:0] $end
$var wire 8 D v_mem_2 [7:0] $end
$var wire 8 E v_mem_1 [7:0] $end
$var wire 8 F v_mem_0 [7:0] $end
$var wire 10 G sum3 [9:0] $end
$var wire 10 H sum2 [9:0] $end
$var wire 10 I sum1 [9:0] $end
$var wire 10 J sum0 [9:0] $end
$var wire 4 K spike_out [3:0] $end
$var wire 8 L ext3 [7:0] $end
$var wire 8 M ext2 [7:0] $end
$var wire 8 N ext1 [7:0] $end
$var wire 8 O ext0 [7:0] $end
$var wire 8 P cur3 [7:0] $end
$var wire 8 Q cur2 [7:0] $end
$var wire 8 R cur1 [7:0] $end
$var wire 8 S cur0 [7:0] $end
$var wire 8 T c32 [7:0] $end
$var wire 8 U c31 [7:0] $end
$var wire 8 V c30 [7:0] $end
$var wire 8 W c23 [7:0] $end
$var wire 8 X c21 [7:0] $end
$var wire 8 Y c20 [7:0] $end
$var wire 8 Z c13 [7:0] $end
$var wire 8 [ c12 [7:0] $end
$var wire 8 \ c10 [7:0] $end
$var wire 8 ] c03 [7:0] $end
$var wire 8 ^ c02 [7:0] $end
$var wire 8 _ c01 [7:0] $end
$scope module n0 $end
$var wire 1 2 clk $end
$var wire 8 ` input_current [7:0] $end
$var wire 1 4 rst_n $end
$var wire 8 a v_mem [7:0] $end
$var wire 8 b v_leak_clamped [7:0] $end
$var wire 8 c v_integrated [7:0] $end
$var wire 9 d v_after_leak [8:0] $end
$var wire 9 e v_after_current [8:0] $end
$var reg 1 f spike_out $end
$var reg 8 g v_mem_reg [7:0] $end
$upscope $end
$scope module n1 $end
$var wire 1 2 clk $end
$var wire 8 h input_current [7:0] $end
$var wire 1 4 rst_n $end
$var wire 8 i v_mem [7:0] $end
$var wire 8 j v_leak_clamped [7:0] $end
$var wire 8 k v_integrated [7:0] $end
$var wire 9 l v_after_leak [8:0] $end
$var wire 9 m v_after_current [8:0] $end
$var reg 1 n spike_out $end
$var reg 8 o v_mem_reg [7:0] $end
$upscope $end
$scope module n2 $end
$var wire 1 2 clk $end
$var wire 8 p input_current [7:0] $end
$var wire 1 4 rst_n $end
$var wire 8 q v_mem [7:0] $end
$var wire 8 r v_leak_clamped [7:0] $end
$var wire 8 s v_integrated [7:0] $end
$var wire 9 t v_after_leak [8:0] $end
$var wire 9 u v_after_current [8:0] $end
$var reg 1 v spike_out $end
$var reg 8 w v_mem_reg [7:0] $end
$upscope $end
$scope module n3 $end
$var wire 1 2 clk $end
$var wire 8 x input_current [7:0] $end
$var wire 1 4 rst_n $end
$var wire 8 y v_mem [7:0] $end
$var wire 8 z v_leak_clamped [7:0] $end
$var wire 8 { v_integrated [7:0] $end
$var wire 9 | v_after_leak [8:0] $end
$var wire 9 } v_after_current [8:0] $end
$var reg 1 ~ spike_out $end
$var reg 8 !" v_mem_reg [7:0] $end
$upscope $end
$scope module s01 $end
$var wire 1 2 clk $end
$var wire 1 "" post_spike $end
$var wire 1 #" pre_spike $end
$var wire 1 4 rst_n $end
$var wire 8 $" weight [7:0] $end
$var wire 8 %" weighted_current [7:0] $end
$var wire 9 &" weight_ltp [8:0] $end
$var wire 9 '" weight_ltd [8:0] $end
$var wire 8 (" weight_after_ltp [7:0] $end
$var wire 8 )" weight_after_ltd [7:0] $end
$var reg 4 *" post_trace [3:0] $end
$var reg 4 +" pre_trace [3:0] $end
$var reg 8 ," weight_reg [7:0] $end
$upscope $end
$scope module s02 $end
$var wire 1 2 clk $end
$var wire 1 -" post_spike $end
$var wire 1 ." pre_spike $end
$var wire 1 4 rst_n $end
$var wire 8 /" weight [7:0] $end
$var wire 8 0" weighted_current [7:0] $end
$var wire 9 1" weight_ltp [8:0] $end
$var wire 9 2" weight_ltd [8:0] $end
$var wire 8 3" weight_after_ltp [7:0] $end
$var wire 8 4" weight_after_ltd [7:0] $end
$var reg 4 5" post_trace [3:0] $end
$var reg 4 6" pre_trace [3:0] $end
$var reg 8 7" weight_reg [7:0] $end
$upscope $end
$scope module s03 $end
$var wire 1 2 clk $end
$var wire 1 8" post_spike $end
$var wire 1 9" pre_spike $end
$var wire 1 4 rst_n $end
$var wire 8 :" weight [7:0] $end
$var wire 8 ;" weighted_current [7:0] $end
$var wire 9 <" weight_ltp [8:0] $end
$var wire 9 =" weight_ltd [8:0] $end
$var wire 8 >" weight_after_ltp [7:0] $end
$var wire 8 ?" weight_after_ltd [7:0] $end
$var reg 4 @" post_trace [3:0] $end
$var reg 4 A" pre_trace [3:0] $end
$var reg 8 B" weight_reg [7:0] $end
$upscope $end
$scope module s10 $end
$var wire 1 2 clk $end
$var wire 1 C" post_spike $end
$var wire 1 D" pre_spike $end
$var wire 1 4 rst_n $end
$var wire 8 E" weight [7:0] $end
$var wire 8 F" weighted_current [7:0] $end
$var wire 9 G" weight_ltp [8:0] $end
$var wire 9 H" weight_ltd [8:0] $end
$var wire 8 I" weight_after_ltp [7:0] $end
$var wire 8 J" weight_after_ltd [7:0] $end
$var reg 4 K" post_trace [3:0] $end
$var reg 4 L" pre_trace [3:0] $end
$var reg 8 M" weight_reg [7:0] $end
$upscope $end
$scope module s12 $end
$var wire 1 2 clk $end
$var wire 1 N" post_spike $end
$var wire 1 O" pre_spike $end
$var wire 1 4 rst_n $end
$var wire 8 P" weight [7:0] $end
$var wire 8 Q" weighted_current [7:0] $end
$var wire 9 R" weight_ltp [8:0] $end
$var wire 9 S" weight_ltd [8:0] $end
$var wire 8 T" weight_after_ltp [7:0] $end
$var wire 8 U" weight_after_ltd [7:0] $end
$var reg 4 V" post_trace [3:0] $end
$var reg 4 W" pre_trace [3:0] $end
$var reg 8 X" weight_reg [7:0] $end
$upscope $end
$scope module s13 $end
$var wire 1 2 clk $end
$var wire 1 Y" post_spike $end
$var wire 1 Z" pre_spike $end
$var wire 1 4 rst_n $end
$var wire 8 [" weight [7:0] $end
$var wire 8 \" weighted_current [7:0] $end
$var wire 9 ]" weight_ltp [8:0] $end
$var wire 9 ^" weight_ltd [8:0] $end
$var wire 8 _" weight_after_ltp [7:0] $end
$var wire 8 `" weight_after_ltd [7:0] $end
$var reg 4 a" post_trace [3:0] $end
$var reg 4 b" pre_trace [3:0] $end
$var reg 8 c" weight_reg [7:0] $end
$upscope $end
$scope module s20 $end
$var wire 1 2 clk $end
$var wire 1 d" post_spike $end
$var wire 1 e" pre_spike $end
$var wire 1 4 rst_n $end
$var wire 8 f" weight [7:0] $end
$var wire 8 g" weighted_current [7:0] $end
$var wire 9 h" weight_ltp [8:0] $end
$var wire 9 i" weight_ltd [8:0] $end
$var wire 8 j" weight_after_ltp [7:0] $end
$var wire 8 k" weight_after_ltd [7:0] $end
$var reg 4 l" post_trace [3:0] $end
$var reg 4 m" pre_trace [3:0] $end
$var reg 8 n" weight_reg [7:0] $end
$upscope $end
$scope module s21 $end
$var wire 1 2 clk $end
$var wire 1 o" post_spike $end
$var wire 1 p" pre_spike $end
$var wire 1 4 rst_n $end
$var wire 8 q" weight [7:0] $end
$var wire 8 r" weighted_current [7:0] $end
$var wire 9 s" weight_ltp [8:0] $end
$var wire 9 t" weight_ltd [8:0] $end
$var wire 8 u" weight_after_ltp [7:0] $end
$var wire 8 v" weight_after_ltd [7:0] $end
$var reg 4 w" post_trace [3:0] $end
$var reg 4 x" pre_trace [3:0] $end
$var reg 8 y" weight_reg [7:0] $end
$upscope $end
$scope module s23 $end
$var wire 1 2 clk $end
$var wire 1 z" post_spike $end
$var wire 1 {" pre_spike $end
$var wire 1 4 rst_n $end
$var wire 8 |" weight [7:0] $end
$var wire 8 }" weighted_current [7:0] $end
$var wire 9 ~" weight_ltp [8:0] $end
$var wire 9 !# weight_ltd [8:0] $end
$var wire 8 "# weight_after_ltp [7:0] $end
$var wire 8 ## weight_after_ltd [7:0] $end
$var reg 4 $# post_trace [3:0] $end
$var reg 4 %# pre_trace [3:0] $end
$var reg 8 &# weight_reg [7:0] $end
$upscope $end
$scope module s30 $end
$var wire 1 2 clk $end
$var wire 1 '# post_spike $end
$var wire 1 (# pre_spike $end
$var wire 1 4 rst_n $end
$var wire 8 )# weight [7:0] $end
$var wire 8 *# weighted_current [7:0] $end
$var wire 9 +# weight_ltp [8:0] $end
$var wire 9 ,# weight_ltd [8:0] $end
$var wire 8 -# weight_after_ltp [7:0] $end
$var wire 8 .# weight_after_ltd [7:0] $end
$var reg 4 /# post_trace [3:0] $end
$var reg 4 0# pre_trace [3:0] $end
$var reg 8 1# weight_reg [7:0] $end
$upscope $end
$scope module s31 $end
$var wire 1 2 clk $end
$var wire 1 2# post_spike $end
$var wire 1 3# pre_spike $end
$var wire 1 4 rst_n $end
$var wire 8 4# weight [7:0] $end
$var wire 8 5# weighted_current [7:0] $end
$var wire 9 6# weight_ltp [8:0] $end
$var wire 9 7# weight_ltd [8:0] $end
$var wire 8 8# weight_after_ltp [7:0] $end
$var wire 8 9# weight_after_ltd [7:0] $end
$var reg 4 :# post_trace [3:0] $end
$var reg 4 ;# pre_trace [3:0] $end
$var reg 8 <# weight_reg [7:0] $end
$upscope $end
$scope module s32 $end
$var wire 1 2 clk $end
$var wire 1 =# post_spike $end
$var wire 1 ># pre_spike $end
$var wire 1 4 rst_n $end
$var wire 8 ?# weight [7:0] $end
$var wire 8 @# weighted_current [7:0] $end
$var wire 9 A# weight_ltp [8:0] $end
$var wire 9 B# weight_ltd [8:0] $end
$var wire 8 C# weight_after_ltp [7:0] $end
$var wire 8 D# weight_after_ltd [7:0] $end
$var reg 4 E# post_trace [3:0] $end
$var reg 4 F# pre_trace [3:0] $end
$var reg 8 G# weight_reg [7:0] $end
$upscope $end
$upscope $end
$scope task tick $end
$var reg 4 H# pattern [3:0] $end
$upscope $end
$upscope $end
$enddefinitions $end
#0
$dumpvars
bx H#
b101 G#
b0 F#
b0 E#
b100 D#
b1000 C#
b100 B#
b1000 A#
b0 @#
b101 ?#
0>#
0=#
b101 <#
b0 ;#
b0 :#
b100 9#
b1000 8#
b100 7#
b1000 6#
b0 5#
b101 4#
03#
02#
b101 1#
b0 0#
b0 /#
b100 .#
b1000 -#
b100 ,#
b1000 +#
b0 *#
b101 )#
0(#
0'#
b101 &#
b0 %#
b0 $#
b100 ##
b1000 "#
b100 !#
b1000 ~"
b0 }"
b101 |"
0{"
0z"
b101 y"
b0 x"
b0 w"
b100 v"
b1000 u"
b100 t"
b1000 s"
b0 r"
b101 q"
0p"
0o"
b101 n"
b0 m"
b0 l"
b100 k"
b1000 j"
b100 i"
b1000 h"
b0 g"
b101 f"
0e"
0d"
b101 c"
b0 b"
b0 a"
b100 `"
b1000 _"
b100 ^"
b1000 ]"
b0 \"
b101 ["
0Z"
0Y"
b101 X"
b0 W"
b0 V"
b100 U"
b1000 T"
b100 S"
b1000 R"
b0 Q"
b101 P"
0O"
0N"
b101 M"
b0 L"
b0 K"
b100 J"
b1000 I"
b100 H"
b1000 G"
b0 F"
b101 E"
0D"
0C"
b101 B"
b0 A"
b0 @"
b100 ?"
b1000 >"
b100 ="
b1000 <"
b0 ;"
b101 :"
09"
08"
b101 7"
b0 6"
b0 5"
b100 4"
b1000 3"
b100 2"
b1000 1"
b0 0"
b101 /"
0."
0-"
b101 ,"
b0 +"
b0 *"
b100 )"
b1000 ("
b100 '"
b1000 &"
b0 %"
b101 $"
0#"
0""
b0 !"
0~
b0 }
b111111101 |
b0 {
b0 z
b0 y
b0 x
b0 w
0v
b0 u
b111111101 t
b0 s
b0 r
b0 q
b0 p
b0 o
0n
b0 m
b111111101 l
b0 k
b0 j
b0 i
b0 h
b0 g
0f
b0 e
b111111101 d
b0 c
b0 b
b0 a
b0 `
b0 _
b0 ^
b0 ]
b0 \
b0 [
b0 Z
b0 Y
b0 X
b0 W
b0 V
b0 U
b0 T
b0 S
b0 R
b0 Q
b0 P
b0 O
b0 N
b0 M
b0 L
b0 K
b0 J
b0 I
b0 H
b0 G
b0 F
b0 E
b0 D
b0 C
b101 B
b101 A
b101 @
b101 ?
b101 >
b101 =
b101 <
b101 ;
b101 :
b101 9
b101 8
b101 7
b0 6
bx 5
04
b0 3
02
b0 1
b0 0
b0 /
b0 .
b0 -
b101 ,
b101 +
b101 *
b101 )
b101 (
b101 '
b101 &
b101 %
b101 $
b101 #
b101 "
b101 !
$end
#5000
12
#10000
02
#15000
12
#16000
b1 H#
b0 5
14
#20000
02
#25000
12
#26000
b11001 c
b11001 e
b11001 S
b11001 `
b11001 J
b11001 O
b1 5
b1 3
b1 6
#30000
02
#35000
b101111 c
b101111 e
b10110 b
b10110 d
b11001 0
b11001 F
b11001 a
b11001 g
12
#36000
b10 5
#40000
02
#45000
b1000101 c
b1000101 e
b101100 b
b101100 d
b101111 0
b101111 F
b101111 a
b101111 g
12
#46000
b11 5
#50000
02
#55000
b101 k
b101 s
b101 {
b101 m
b101 R
b101 h
b101 u
b101 Q
b101 p
b101 }
b101 P
b101 x
b1011011 c
b101 I
b101 _
b101 %"
b101 H
b101 ^
b101 0"
b101 G
b101 ]
b101 ;"
b1011011 e
b1000010 b
1#"
1C"
1."
1d"
19"
1'#
b1 1
b1 K
1f
b1000010 d
b1000101 0
b1000101 F
b1000101 a
b1000101 g
12
#56000
b100 5
#60000
02
#65000
b10 {
b10 s
b10 k
b0 R
b0 h
b0 Q
b0 p
b0 P
b0 x
b11001 c
b10 }
b10 z
b10 u
b10 r
b10 m
b10 j
b0 I
b0 _
b0 %"
b0 H
b0 ^
b0 0"
b0 G
b0 ]
b0 ;"
b11001 e
b0 b
0#"
0C"
0."
0d"
09"
0'#
b1010 /#
b1010 A"
b1010 l"
b1010 6"
b1010 K"
b1010 +"
b10 |
b101 -
b101 C
b101 y
b101 !"
b10 t
b101 .
b101 D
b101 q
b101 w
b10 l
b101 /
b101 E
b101 i
b101 o
b0 1
b0 K
0f
b111111101 d
b0 0
b0 F
b0 a
b0 g
12
#66000
b101 5
#70000
02
#75000
b101111 c
b0 k
b0 s
b0 {
b101111 e
b10110 b
b0 m
b0 j
b0 u
b0 r
b0 }
b0 z
b10110 d
b11001 0
b11001 F
b11001 a
b11001 g
b111111111 l
b10 /
b10 E
b10 i
b10 o
b111111111 t
b10 .
b10 D
b10 q
b10 w
b111111111 |
b10 -
b10 C
b10 y
b10 !"
b1001 +"
b1001 K"
b1001 6"
b1001 l"
b1001 A"
b1001 /#
12
#76000
b110 5
#80000
02
#85000
b1000101 c
b1000101 e
b101100 b
b1000 /#
b1000 A"
b1000 l"
b1000 6"
b1000 K"
b1000 +"
b111111101 |
b0 -
b0 C
b0 y
b0 !"
b111111101 t
b0 .
b0 D
b0 q
b0 w
b111111101 l
b0 /
b0 E
b0 i
b0 o
b101100 d
b101111 0
b101111 F
b101111 a
b101111 g
12
#86000
b111 5
#90000
02
#95000
b101 k
b101 s
b101 {
b101 m
b101 R
b101 h
b101 u
b101 Q
b101 p
b101 }
b101 P
b101 x
b1011011 c
b101 I
b101 _
b101 %"
b101 H
b101 ^
b101 0"
b101 G
b101 ]
b101 ;"
b1011011 e
b1000010 b
1#"
1C"
1."
1d"
19"
1'#
b1 1
b1 K
1f
b1000010 d
b1000101 0
b1000101 F
b1000101 a
b1000101 g
b111 +"
b111 K"
b111 6"
b111 l"
b111 A"
b111 /#
12
#96000
b1000 5
#100000
02
#105000
b10 {
b10 s
b10 k
b0 R
b0 h
b0 Q
b0 p
b0 P
b0 x
b11001 c
b10 }
b10 z
b10 u
b10 r
b10 m
b10 j
b0 I
b0 _
b0 %"
b0 H
b0 ^
b0 0"
b0 G
b0 ]
b0 ;"
b11001 e
b0 b
0#"
0C"
0."
0d"
09"
0'#
b1010 /#
b1010 A"
b1010 l"
b1010 6"
b1010 K"
b1010 +"
b10 |
b101 -
b101 C
b101 y
b101 !"
b10 t
b101 .
b101 D
b101 q
b101 w
b10 l
b101 /
b101 E
b101 i
b101 o
b0 1
b0 K
0f
b111111101 d
b0 0
b0 F
b0 a
b0 g
12
#106000
b1001 5
#110000
02
#115000
b101111 c
b0 k
b0 s
b0 {
b101111 e
b10110 b
b0 m
b0 j
b0 u
b0 r
b0 }
b0 z
b10110 d
b11001 0
b11001 F
b11001 a
b11001 g
b111111111 l
b10 /
b10 E
b10 i
b10 o
b111111111 t
b10 .
b10 D
b10 q
b10 w
b111111111 |
b10 -
b10 C
b10 y
b10 !"
b1001 +"
b1001 K"
b1001 6"
b1001 l"
b1001 A"
b1001 /#
12
#116000
b0 H#
b1010 5
#120000
02
#125000
b1000101 c
b1000101 e
b101100 b
b1000 /#
b1000 A"
b1000 l"
b1000 6"
b1000 K"
b1000 +"
b111111101 |
b0 -
b0 C
b0 y
b0 !"
b111111101 t
b0 .
b0 D
b0 q
b0 w
b111111101 l
b0 /
b0 E
b0 i
b0 o
b101100 d
b101111 0
b101111 F
b101111 a
b101111 g
12
#126000
b101100 c
b101100 e
b0 S
b0 `
b0 J
b0 O
b11 H#
b0 5
b0 3
b0 6
#130000
02
#135000
b101001 c
b101001 e
b101001 b
b101001 d
b101100 0
b101100 F
b101100 a
b101100 g
b111 +"
b111 K"
b111 6"
b111 l"
b111 A"
b111 /#
12
#136000
b1000010 c
b11001 k
b1000010 e
b11001 S
b11001 `
b11001 m
b11001 R
b11001 h
b11001 J
b11001 O
b11001 I
b11001 N
b1 5
b11 3
b11 6
#140000
02
#145000
b101 s
b101 {
b110100 k
b11110 R
b11110 h
b101 u
b101 Q
b101 p
b101 }
b101 P
b101 x
b1011000 c
b110100 m
b10110 j
b11110 I
b101 _
b101 %"
b101 H
b101 ^
b101 0"
b101 G
b101 ]
b101 ;"
b1011000 e
b111111 b
1#"
1C"
1."
1d"
19"
1'#
b110 /#
b110 A"
b110 l"
b110 6"
b110 K"
b110 +"
b10110 l
b11001 /
b11001 E
b11001 i
b11001 o
b1 1
b1 K
1f
b111111 d
b1000010 0
b1000010 F
b1000010 a
b1000010 g
12
#146000
b10 5
#150000
02
#155000
b11001 R
b11001 h
b0 Q
b0 p
b0 P
b0 x
b11001 c
b1001010 k
b10 s
b10 {
b11001 I
b0 _
b0 %"
b0 H
b0 ^
b0 0"
b0 G
b0 ]
b0 ;"
b11001 e
b0 b
b1001010 m
b110001 j
b10 u
b10 r
b10 }
b10 z
0#"
0C"
0."
0d"
09"
0'#
b0 1
b0 K
0f
b111111101 d
b0 0
b0 F
b0 a
b0 g
b110001 l
b110100 /
b110100 E
b110100 i
b110100 o
b10 t
b101 .
b101 D
b101 q
b101 w
b10 |
b101 -
b101 C
b101 y
b101 !"
b1010 +"
b1010 K"
b1010 6"
b1010 l"
b1010 A"
b1010 /#
12
#156000
b11 5
#160000
02
#165000
b101 {
b101 s
b11110 S
b11110 `
b101 Q
b101 p
b101 P
b101 x
b1100000 k
b110100 c
b101 }
b0 z
b101 u
b0 r
b11110 J
b101 \
b101 F"
b101 H
b101 [
b101 Q"
b101 G
b101 Z
b101 \"
b1100000 m
b1000111 j
b110100 e
b10110 b
1""
1D"
1O"
1o"
1Z"
12#
b1001 /#
b1001 A"
b1001 l"
b1001 6"
b1001 K"
b1001 +"
b111111111 |
b10 -
b10 C
b10 y
b10 !"
b111111111 t
b10 .
b10 D
b10 q
b10 w
b10 1
b10 K
1n
b1000111 l
b1001010 /
b1001010 E
b1001010 i
b1001010 o
b10110 d
b11001 0
b11001 F
b11001 a
b11001 g
12
#166000
b100 5
#170000
02
#175000
b1001010 c
b0 Q
b0 p
b0 P
b0 x
b11001 k
b10 s
b10 {
b111 )"
b11 J"
b11001 S
b11001 `
b1001010 e
b110001 b
b0 H
b0 [
b0 Q"
b0 G
b0 Z
b0 \"
b11001 m
b0 j
b10 u
b10 r
b10 }
b10 z
b1011 ("
b111 I"
0""
0D"
0O"
0o"
0Z"
02#
b11001 J
b0 \
b0 F"
b110001 d
b110100 0
b110100 F
b110100 a
b110100 g
b0 1
b0 K
0n
b111111101 l
b0 /
b0 E
b0 i
b0 o
b10 t
b101 .
b101 D
b101 q
b101 w
b10 |
b101 -
b101 C
b101 y
b101 !"
b1011 &"
b111 '"
b1000 ,
b1000 B
b1000 $"
b1000 ,"
b1010 *"
b1000 +"
b111 G"
b11 H"
b100 )
b100 ?
b100 E"
b100 M"
b1000 K"
b1010 L"
b1000 6"
b1000 l"
b1000 A"
b1000 /#
b1010 W"
b1010 w"
b1010 b"
b1010 :#
12
#176000
b101 5
#180000
02
#185000
b101 {
b101 s
b110111 k
b100001 R
b100001 h
b101 Q
b101 p
b101 P
b101 x
b1100000 c
b101 }
b0 z
b101 u
b0 r
b110111 m
b10110 j
b100001 I
b1000 _
b1000 %"
b101 H
b101 ^
b101 0"
b101 G
b101 ]
b101 ;"
b1100000 e
b1000111 b
1#"
1C"
1."
1d"
19"
1'#
b1001 :#
b1001 b"
b1001 w"
b1001 W"
b111 /#
b111 A"
b111 l"
b111 6"
b111 K"
b1001 L"
b1001 *"
b111 +"
b111111111 |
b10 -
b10 C
b10 y
b10 !"
b111111111 t
b10 .
b10 D
b10 q
b10 w
b10110 l
b11001 /
b11001 E
b11001 i
b11001 o
b1 1
b1 K
1f
b1000111 d
b1001010 0
b1001010 F
b1001010 a
b1001010 g
12
#186000
b110 5
#190000
02
#195000
b0 Q
b0 p
b0 P
b0 x
b11001 c
b1001101 k
b10 s
b10 {
b110 )"
b11001 R
b11001 h
b110 J"
b0 H
b0 ^
b0 0"
b0 G
b0 ]
b0 ;"
b11001 e
b0 b
b1001101 m
b110100 j
b10 u
b10 r
b10 }
b10 z
b1010 ("
b1010 I"
0#"
0C"
0."
0d"
09"
0'#
b11001 I
b0 _
b0 %"
b0 1
b0 K
0f
b111111101 d
b0 0
b0 F
b0 a
b0 g
b110100 l
b110111 /
b110111 E
b110111 i
b110111 o
b10 t
b101 .
b101 D
b101 q
b101 w
b10 |
b101 -
b101 C
b101 y
b101 !"
b1010 &"
b110 '"
b111 ,
b111 B
b111 $"
b111 ,"
b1000 *"
b1010 +"
b1010 G"
b110 H"
b111 )
b111 ?
b111 E"
b111 M"
b1010 K"
b1000 L"
b1010 6"
b1010 l"
b1010 A"
b1010 /#
b1000 W"
b1000 w"
b1000 b"
b1000 :#
12
#196000
b111 5
#200000
02
#205000
b101 {
b101 s
b100000 S
b100000 `
b101 Q
b101 p
b101 P
b101 x
b1100011 k
b110110 c
b101 }
b0 z
b101 u
b0 r
b100000 J
b111 \
b111 F"
b101 H
b101 [
b101 Q"
b101 G
b101 Z
b101 \"
b1100011 m
b1001010 j
b110110 e
b10110 b
1""
1D"
1O"
1o"
1Z"
12#
b111 :#
b111 b"
b111 w"
b111 W"
b1001 /#
b1001 A"
b1001 l"
b1001 6"
b1001 K"
b111 L"
b111 *"
b1001 +"
b111111111 |
b10 -
b10 C
b10 y
b10 !"
b111111111 t
b10 .
b10 D
b10 q
b10 w
b10 1
b10 K
1n
b1001010 l
b1001101 /
b1001101 E
b1001101 i
b1001101 o
b10110 d
b11001 0
b11001 F
b11001 a
b11001 g
12
#206000
b1000 5
#210000
02
#215000
b1001100 c
b0 Q
b0 p
b0 P
b0 x
b11001 k
b10 s
b10 {
b1001 )"
b101 J"
b11001 S
b11001 `
b1001100 e
b110011 b
b0 H
b0 [
b0 Q"
b0 G
b0 Z
b0 \"
b11001 m
b0 j
b10 u
b10 r
b10 }
b10 z
b1101 ("
b1001 I"
0""
0D"
0O"
0o"
0Z"
02#
b11001 J
b0 \
b0 F"
b110011 d
b110110 0
b110110 F
b110110 a
b110110 g
b0 1
b0 K
0n
b111111101 l
b0 /
b0 E
b0 i
b0 o
b10 t
b101 .
b101 D
b101 q
b101 w
b10 |
b101 -
b101 C
b101 y
b101 !"
b1101 &"
b1001 '"
b1010 ,
b1010 B
b1010 $"
b1010 ,"
b1010 *"
b1000 +"
b1001 G"
b101 H"
b110 )
b110 ?
b110 E"
b110 M"
b1000 K"
b1010 L"
b1000 6"
b1000 l"
b1000 A"
b1000 /#
b1010 W"
b1010 w"
b1010 b"
b1010 :#
12
#216000
b1001 5
#220000
02
#225000
b101 {
b101 s
b111001 k
b100011 R
b100011 h
b101 Q
b101 p
b101 P
b101 x
b1100010 c
b101 }
b0 z
b101 u
b0 r
b111001 m
b10110 j
b100011 I
b1010 _
b1010 %"
b101 H
b101 ^
b101 0"
b101 G
b101 ]
b101 ;"
b1100010 e
b1001001 b
1#"
1C"
1."
1d"
19"
1'#
b1001 :#
b1001 b"
b1001 w"
b1001 W"
b111 /#
b111 A"
b111 l"
b111 6"
b111 K"
b1001 L"
b1001 *"
b111 +"
b111111111 |
b10 -
b10 C
b10 y
b10 !"
b111111111 t
b10 .
b10 D
b10 q
b10 w
b10110 l
b11001 /
b11001 E
b11001 i
b11001 o
b1 1
b1 K
1f
b1001001 d
b1001100 0
b1001100 F
b1001100 a
b1001100 g
12
#226000
b1010 5
#230000
02
#235000
b0 Q
b0 p
b0 P
b0 x
b11001 c
b1001111 k
b10 s
b10 {
b1000 )"
b11001 R
b11001 h
b1000 J"
b0 H
b0 ^
b0 0"
b0 G
b0 ]
b0 ;"
b11001 e
b0 b
b1001111 m
b110110 j
b10 u
b10 r
b10 }
b10 z
b1100 ("
b1100 I"
0#"
0C"
0."
0d"
09"
0'#
b11001 I
b0 _
b0 %"
b0 1
b0 K
0f
b111111101 d
b0 0
b0 F
b0 a
b0 g
b110110 l
b111001 /
b111001 E
b111001 i
b111001 o
b10 t
b101 .
b101 D
b101 q
b101 w
b10 |
b101 -
b101 C
b101 y
b101 !"
b1100 &"
b1000 '"
b1001 ,
b1001 B
b1001 $"
b1001 ,"
b1000 *"
b1010 +"
b1100 G"
b1000 H"
b1001 )
b1001 ?
b1001 E"
b1001 M"
b1010 K"
b1000 L"
b1010 6"
b1010 l"
b1010 A"
b1010 /#
b1000 W"
b1000 w"
b1000 b"
b1000 :#
12
#236000
b1011 5
#240000
02
#245000
b101 {
b101 s
b100010 S
b100010 `
b101 Q
b101 p
b101 P
b101 x
b1100101 k
b111000 c
b101 }
b0 z
b101 u
b0 r
b100010 J
b1001 \
b1001 F"
b101 H
b101 [
b101 Q"
b101 G
b101 Z
b101 \"
b1100101 m
b1001100 j
b111000 e
b10110 b
1""
1D"
1O"
1o"
1Z"
12#
b111 :#
b111 b"
b111 w"
b111 W"
b1001 /#
b1001 A"
b1001 l"
b1001 6"
b1001 K"
b111 L"
b111 *"
b1001 +"
b111111111 |
b10 -
b10 C
b10 y
b10 !"
b111111111 t
b10 .
b10 D
b10 q
b10 w
b10 1
b10 K
1n
b1001100 l
b1001111 /
b1001111 E
b1001111 i
b1001111 o
b10110 d
b11001 0
b11001 F
b11001 a
b11001 g
12
#246000
b1100 5
#250000
02
#255000
b1001110 c
b0 Q
b0 p
b0 P
b0 x
b11001 k
b10 s
b10 {
b1011 )"
b111 J"
b11001 S
b11001 `
b1001110 e
b110101 b
b0 H
b0 [
b0 Q"
b0 G
b0 Z
b0 \"
b11001 m
b0 j
b10 u
b10 r
b10 }
b10 z
b1111 ("
b1011 I"
0""
0D"
0O"
0o"
0Z"
02#
b11001 J
b0 \
b0 F"
b110101 d
b111000 0
b111000 F
b111000 a
b111000 g
b0 1
b0 K
0n
b111111101 l
b0 /
b0 E
b0 i
b0 o
b10 t
b101 .
b101 D
b101 q
b101 w
b10 |
b101 -
b101 C
b101 y
b101 !"
b1111 &"
b1011 '"
b1100 ,
b1100 B
b1100 $"
b1100 ,"
b1010 *"
b1000 +"
b1011 G"
b111 H"
b1000 )
b1000 ?
b1000 E"
b1000 M"
b1000 K"
b1010 L"
b1000 6"
b1000 l"
b1000 A"
b1000 /#
b1010 W"
b1010 w"
b1010 b"
b1010 :#
12
#256000
b1101 5
#260000
02
